…
    ## Warning in fgseaMultilevel(pathways = pathways, stats = stats, minSize =
    ## minSize, : For some pathways, in reality P-values are less than 1e-10. You can
    ## set the `eps` argument to zero for better estimation.

    ## leading edge analysis...
    ## done...

``` r
# check GSEA GO result
Iron_GO_GSEA@result |> 
  as_tibble() |> 
  arrange(p.adjust)
```

    ## # A tibble: 5,436 × 12
    ##    ONTOLOGY ID         Description setSize enrichmentScore   NES pvalue p.adjust
    ##    <chr>    <chr>      <chr>         <int>           <dbl> <dbl>  <dbl>    <dbl>
    ##  1 CC       GO:0022626 cytosolic …     104           0.652  2.79  1e-10  2.09e-8
    ##  2 BP       GO:0002181 cytoplasmi…     145           0.616  2.78  1e-10  2.09e-8
    ##  3 CC       GO:1904813 ficolin-1-…      98           0.605  2.57  1e-10  2.09e-8
    ##  4 CC       GO:0101002 ficolin-1-…     123           0.570  2.50  1e-10  2.09e-8
    ##  5 CC       GO:0034774 secretory …     185           0.534  2.50  1e-10  2.09e-8
    ##  6 CC       GO:0060205 cytoplasmi…     187           0.529  2.48  1e-10  2.09e-8
    ##  7 CC       GO:0031983 vesicle lu…     188           0.525  2.46  1e-10  2.09e-8
    ##  8 MF       GO:0003735 structural…     148           0.527  2.38  1e-10  2.09e-8
    ##  9 MF       GO:0045296 cadherin b…     273           0.479  2.35  1e-10  2.09e-8
    ## 10 CC       GO:0044391 ribosomal …     169           0.499  2.31  1e-10  2.09e-8
    ## # ℹ 5,426 more rows
    ## # ℹ 4 more variables: qvalue <dbl>, rank <dbl>, leading_edge <chr>,
    ## #   core_enrichment <chr>
…
    ## leading edge analysis...
    ## done...

``` r
# check GSEA KEGG result
Iron_KEGG_GSEA@result |> 
  as_tibble() |> 
  arrange(p.adjust)
```

    ## # A tibble: 308 × 11
    ##    ID       Description  setSize enrichmentScore   NES   pvalue p.adjust  qvalue
    ##    <chr>    <chr>          <int>           <dbl> <dbl>    <dbl>    <dbl>   <dbl>
    ##  1 hsa03010 Ribosome         124           0.582  2.61 1   e-10  7.70e-9 5.71e-9
    ##  2 hsa05012 Parkinson d…     188           0.472  2.22 1   e-10  7.70e-9 5.71e-9
    ##  3 hsa05016 Huntington …     216           0.454  2.19 1   e-10  7.70e-9 5.71e-9
    ##  4 hsa05022 Pathways of…     291           0.421  2.10 1   e-10  7.70e-9 5.71e-9
    ##  5 hsa05014 Amyotrophic…     253           0.431  2.12 3.15e-10  1.94e-8 1.44e-8
    ##  6 hsa05171 Coronavirus…     134           0.504  2.28 1.12e- 9  5.77e-8 4.28e-8
    ##  7 hsa03050 Proteasome        41           0.708  2.57 1.96e- 9  8.61e-8 6.39e-8
    ##  8 hsa05020 Prion disea…     185           0.443  2.09 7.60e- 9  2.93e-7 2.17e-7
    ##  9 hsa01200 Carbon meta…      90           0.528  2.25 4.99e- 8  1.71e-6 1.27e-6
    ## 10 hsa05010 Alzheimer d…     243           0.386  1.88 3.17e- 7  9.77e-6 7.25e-6
    ## # ℹ 298 more rows
    ## # ℹ 3 more variables: rank <dbl>, leading_edge <chr>, core_enrichment <chr>
…
    ## Warning in fgseaMultilevel(pathways = pathways, stats = stats, minSize =
    ## minSize, : For some pathways, in reality P-values are less than 1e-10. You can
    ## set the `eps` argument to zero for better estimation.

    ## leading edge analysis...
    ## done...

``` r
# check GSEA CORUM result
Iron_CORUM_GSEA@result |> 
  as_tibble() |> 
  arrange(p.adjust)
```

    ## # A tibble: 176 × 11
    ##    ID        Description setSize enrichmentScore   NES   pvalue p.adjust  qvalue
    ##    <chr>     <chr>         <int>           <dbl> <dbl>    <dbl>    <dbl>   <dbl>
    ##  1 corum_id… corum_id_3…      76           0.689  2.81 1   e-10  8.80e-9 7.37e-9
    ##  2 corum_id… corum_id_3…     100           0.649  2.79 1   e-10  8.80e-9 7.37e-9
    ##  3 corum_id… corum_id_1…      36           0.748  2.62 1.85e-10  1.09e-8 9.09e-9
    ##  4 corum_id… corum_id_3…      45           0.696  2.56 1.08e- 9  4.76e-8 3.98e-8
    ##  5 corum_id… corum_id_1…      22           0.765  2.44 2.16e- 7  7.62e-6 6.38e-6
    ##  6 corum_id… corum_id_3…      31           0.689  2.36 5.40e- 7  1.36e-5 1.14e-5
    ##  7 corum_id… corum_id_3…      31           0.689  2.36 5.40e- 7  1.36e-5 1.14e-5
    ##  8 corum_id… corum_id_1…      16           0.792  2.32 4.69e- 6  1.03e-4 8.64e-5
    ##  9 corum_id… corum_id_32      20           0.743  2.30 5.67e- 6  1.11e-4 9.29e-5
    ## 10 corum_id… corum_id_5…      14           0.816  2.32 6.70e- 6  1.18e-4 9.87e-5
    ## # ℹ 166 more rows
    ## # ℹ 3 more variables: rank <dbl>, leading_edge <chr>, core_enrichment <chr>
…
    ## using 'fgsea' for GSEA analysis, please cite Korotkevich et al (2019).
    ## 
    ## preparing geneSet collections...
    ## GSEA analysis...
    ## leading edge analysis...
    ## done...

``` r
# check GSEA Pfam result
Iron_Pfam_GSEA@result |> 
  as_tibble() |> 
  arrange(p.adjust)
```

    ## # A tibble: 174 × 11
    ##    ID      Description setSize enrichmentScore   NES   pvalue   p.adjust  qvalue
    ##    <chr>   <chr>         <int>           <dbl> <dbl>    <dbl>      <dbl>   <dbl>
    ##  1 PF00071 PF00071          76           0.605  2.45 6.11e-10    1.06e-7 8.48e-8
    ##  2 PF00096 PF00096          90          -0.462 -2.04 2.33e- 6    2.03e-4 1.62e-4
    ##  3 PF00025 PF00025          15           0.768  2.20 4.97e- 5    2.88e-3 2.30e-3
    ##  4 PF00104 PF00104          16          -0.731 -2.17 1.04e- 4    3.02e-3 2.41e-3
    ##  5 PF00105 PF00105          16          -0.731 -2.17 1.04e- 4    3.02e-3 2.41e-3
    ##  6 PF00227 PF00227          16           0.740  2.16 9.04e- 5    3.02e-3 2.41e-3
    ##  7 PF00153 PF00153          34          -0.543 -1.96 2.53e- 4    6.29e-3 5.02e-3
    ##  8 PF00118 PF00118          11           0.765  2.02 3.53e- 4    7.68e-3 6.14e-3
    ##  9 PF00651 PF00651          25          -0.594 -1.96 5.63e- 4    1.09e-2 8.69e-3
    ## 10 PF00856 PF00856          23          -0.607 -1.98 6.43e- 4    1.11e-2 8.90e-3
    ## # ℹ 164 more rows
    ## # ℹ 3 more variables: rank <dbl>, leading_edge <chr>, core_enrichment <chr>
…
